<?xml version="1.0" encoding="utf-8"?>
<!-- Generator: Adobe Illustrator 16.0.4, SVG Export Plug-In . SVG Version: 6.00 Build 0)  -->
<!DOCTYPE svg PUBLIC "-//W3C//DTD SVG 1.1//EN" "http://www.w3.org/Graphics/SVG/1.1/DTD/svg11.dtd">
<svg version="1.1" xmlns="http://www.w3.org/2000/svg" xmlns:xlink="http://www.w3.org/1999/xlink" x="0px" y="0px" width="36px"
	 height="36px" viewBox="0 0 36 36" enable-background="new 0 0 36 36" xml:space="preserve">

	<g id="turbine_1_">
	    <animateTransform attributeName="transform"
	                  attributeType="XML"
	                  type="rotate"
	                  from="0 18 18"
	                  to="360 18 18"
	                  dur="1.2s"
	                  repeatCount="indefinite"/>

		<path fill="#179CD9" d="M18.319,11.223c0.525,0.04,1.041,0.14,1.541,0.299c1.101-2.737,1.798-5.685,2.074-8.774
			c-1.782-0.479-3.565-0.658-5.513-0.484C17.458,5.064,18.095,8.073,18.319,11.223z"/>
		<path opacity="0.16" fill="#179CD9" d="M24.414,19.898c2.751,1.099,5.712,1.793,8.813,2.068c0.364-1.352,0.549-2.739,0.549-4.128
			c0-0.443-0.021-0.893-0.062-1.36c-2.814,1.031-5.838,1.667-9,1.89C24.674,18.89,24.573,19.401,24.414,19.898z"/>
		<path opacity="0.08" fill="#179CD9" d="M24.571,16.379c2.934-0.408,5.851-1.271,8.682-2.568c-0.354-1.354-0.88-2.651-1.567-3.856
			c-0.221-0.387-0.461-0.767-0.728-1.152c-1.935,2.289-4.247,4.339-6.884,6.099C24.297,15.373,24.463,15.869,24.571,16.379z"/>
		<path opacity="0.08" fill="#179CD9" d="M22.854,13.262c2.324-1.836,4.403-4.057,6.188-6.607c-0.989-0.989-2.1-1.841-3.302-2.533
			c-0.386-0.221-0.785-0.429-1.211-0.626c-0.511,2.955-1.468,5.892-2.852,8.744C22.109,12.534,22.503,12.877,22.854,13.262z"/>
		<path opacity="0.16" fill="#179CD9" d="M29.231,29.058c0.995-0.99,1.851-2.1,2.547-3.302c0.223-0.384,0.43-0.782,0.629-1.21
			c-2.956-0.507-5.892-1.463-8.741-2.846c-0.297,0.434-0.642,0.827-1.029,1.179C24.472,25.203,26.688,27.279,29.231,29.058z"/>
		<path opacity="0.16" fill="#179CD9" d="M20.975,24.101c-0.475,0.227-0.972,0.397-1.484,0.509c0.422,2.922,1.299,5.822,2.61,8.634
			c1.36-0.363,2.658-0.897,3.863-1.592c0.386-0.221,0.767-0.462,1.153-0.732C24.812,29.008,22.75,26.718,20.975,24.101z"/>
		<path opacity="0.24" fill="#179CD9" d="M16.041,24.379c-1.101,2.739-1.797,5.688-2.074,8.775c1.788,0.479,3.593,0.655,5.512,0.484
			c-1.036-2.802-1.672-5.812-1.895-8.961C17.061,24.638,16.544,24.538,16.041,24.379z"/>
		<path opacity="0.24" fill="#179CD9" d="M6.873,29.188c0.991,0.987,2.104,1.84,3.312,2.536c0.386,0.223,0.788,0.429,1.217,0.628
			c0.512-2.943,1.471-5.867,2.856-8.707c-0.435-0.297-0.83-0.641-1.183-1.025C10.742,24.447,8.659,26.654,6.873,29.188z"/>
		<path opacity="0.24" fill="#179CD9" d="M2.923,22.062c0.363,1.351,0.899,2.642,1.597,3.844c0.219,0.38,0.463,0.761,0.738,1.151
			c1.917-2.293,4.216-4.348,6.846-6.118c-0.228-0.472-0.397-0.966-0.51-1.477C8.661,19.882,5.748,20.756,2.923,22.062z"/>
		<path opacity="0.32" fill="#179CD9" d="M2.338,19.447c2.814-1.033,5.837-1.668,9-1.89c0.041-0.521,0.141-1.033,0.3-1.532
			c-2.748-1.097-5.71-1.79-8.814-2.066c-0.363,1.352-0.548,2.737-0.548,4.126C2.275,18.528,2.296,18.978,2.338,19.447z"/>
		<path opacity="0.32" fill="#179CD9" d="M6.82,6.868c-0.997,0.99-1.853,2.101-2.547,3.302c-0.222,0.382-0.43,0.78-0.629,1.208
			c2.953,0.507,5.889,1.463,8.741,2.848c0.298-0.435,0.642-0.829,1.028-1.18C11.579,10.722,9.363,8.646,6.82,6.868z"/>
		<path opacity="0.32" fill="#179CD9" d="M9.954,4.322C9.565,4.545,9.186,4.787,8.802,5.056c2.303,1.912,4.366,4.202,6.142,6.817
			c0.473-0.227,0.97-0.397,1.484-0.51c-0.422-2.921-1.3-5.821-2.611-8.633C12.456,3.095,11.158,3.629,9.954,4.322z"/>
	</g>
</svg>
